[{
	"id": "2009-2162",
	"candidate": "MUSTAPHA, John Michael U.",
	"position": "President"
}, {
	"id": "2011-0164",
	"candidate": "DELIM, REGIE B.",
	"position": "President"
}, {
	"id": "2014-1807",
	"candidate": "REGONDOLA, Marivic N.",
	"position": "Vice-President"
}, {
	"id": "2012-5462",
	"candidate": "TOMANDING, JANIZAH B.",
	"position": "Vice-President"
}, {
	"id": "2014-2220",
	"candidate": "FUENTES, Kimberly H.",
	"position": "Secretary-General"
}, {
	"id": "2012-0873",
	"candidate": "CAPAO-AN, Beatrice U.",
	"position": "Secretary-General"
}, {
	"id": "2014-0343",
	"candidate": "WONG, Emmanueleth Y.",
	"position": "Treasurer"
}, {
	"id": "2012-5000",
	"candidate": "DEMEDIA, ADRIAN PAUL M.",
	"position": "Treasurer"
}, {
	"id": "2012-0250",
	"candidate": "SADIANG-ABAY, Wowie John R.",
	"position": "Auditor"
}, {
	"id": "2015-0894",
	"candidate": "ABAD, JERMARIE L.",
	"position": "Councilor"
}, {
	"id": "2012-0253",
	"candidate": "GILZA, Michael Jayson L.",
	"position": "Councilor"
}, {
	"id": "2014-0329",
	"candidate": "RIVERA, Alfred Lloyd S.",
	"position": "Councilor"
}, {
	"id": "2015-1108",
	"candidate": "TACARDON, HANNAH FAI L.",
	"position": "Councilor"
}, {
	"id": "2014-1078",
	"candidate": "VILLAFUERTE, Pamela M.",
	"position": "Councilor"
}, {
	"id": "2014-1512",
	"candidate": "CAMSA, Sultan Ismael F.",
	"position": "Councilor"
}]